{
  "workbench.startupEditor": "newUntitledFile",
  "workbench.colorTheme": "Horizon Italic",
  "explorer.confirmDelete": false,
  "explorer.confirmDragAndDrop": false,
  "redhat.telemetry.enabled": false,
  "keyboard.dispatch": "keyCode",
  "rust-analyzer.diagnostics.disabled": [
    "macro-error",
    "unresolved-import",
    "unresolved-proc-macro",
    "unresolved-macro-call"
  ],
  "[rust]": {
    "editor.formatOnSave": true,
    "editor.formatOnPaste": true
  },
  "prettier.tabWidth": 2,
  "[javascript]": {
    "editor.detectIndentation": false,
    "editor.tabSize": 2,
    "editor.insertSpaces": true,
    "editor.defaultFormatter": "esbenp.prettier-vscode",
    "editor.formatOnSave": true,
    "editor.formatOnPaste": true
  },
  "[typescript]": {
    "editor.defaultFormatter": "esbenp.prettier-vscode",
    "editor.formatOnSave": true,
    "editor.formatOnPaste": true
  },
  "[svelte]": {
    "editor.formatOnPaste": true,
    "editor.formatOnSave": true,
    "editor.defaultFormatter": "svelte.svelte-vscode",
    "editor.detectIndentation": false,
    "editor.tabSize": 2,
    "editor.insertSpaces": true
  },
  "liveServer.settings.donotShowInfoMsg": true,
  "liveServer.settings.donotVerifyTags": true,
  "[html]": {
    "editor.formatOnSave": true,
    "editor.formatOnPaste": true,
    "editor.defaultFormatter": "esbenp.prettier-vscode",
    "editor.detectIndentation": false,
    "editor.tabSize": 2,
    "editor.insertSpaces": true
  },
  "[json]": {
    "editor.defaultFormatter": "esbenp.prettier-vscode",
    "editor.formatOnSave": true,
    "editor.formatOnPaste": true,
    "editor.detectIndentation": false,
    "editor.tabSize": 2,
    "editor.insertSpaces": true
  },
  "[jsonc]": {
    "editor.defaultFormatter": "esbenp.prettier-vscode",
    "editor.formatOnSave": true,
    "editor.formatOnPaste": true,
    "editor.detectIndentation": false,
    "editor.tabSize": 2,
    "editor.insertSpaces": true
  },
  "yaml.format.enable": true,
  "[yaml]": {
    "editor.defaultFormatter": "esbenp.prettier-vscode",
    "editor.insertSpaces": true,
    "editor.tabSize": 2,
    "editor.autoIndent": "advanced",
    "editor.formatOnSave": true
  },
  "[dockercompose]": {
    "editor.autoIndent": "advanced"
  },
  "[kotlin]": {
    "editor.detectIndentation": false,
    "editor.formatOnSave": true,
    "editor.tabSize": 2,
    "editor.insertSpaces": true
  },
  "[java]": {
    "editor.suggest.snippetsPreventQuickSuggestions": false,
    "editor.formatOnSave": true,
    "editor.detectIndentation": false,
    "editor.tabSize": 2,
    "editor.insertSpaces": true
  },
  "[python]": {
    "editor.formatOnSave": true,
    "editor.formatOnPaste": true,
    "editor.detectIndentation": false,
    "editor.tabSize": 2,
    "editor.insertSpaces": true
  },
  "[c]": {
    "editor.formatOnSave": true,
    "editor.formatOnPaste": true,
    "editor.detectIndentation": false,
    "editor.tabSize": 2,
    "editor.insertSpaces": true
  },
  "C_Cpp.clang_format_fallbackStyle": "{ BasedOnStyle: Chromium }",
  "C_Cpp.updateChannel": "Insiders",
  "kotlin.compiler.jvm.target": "1.8",
  "yaml.schemas": {
    "url": "globPattern",
    "Kubernetes": "globPattern"
  },
  "prettier.singleQuote": true,
  "[scala]": {
    "editor.formatOnPaste": true,
    "editor.formatOnSave": true
  },
  "files.watcherExclude": {
    "**/.bloop": true,
    "**/.metals": true,
    "**/.ammonite": true
  },
  "editor.suggestSelection": "first",
  "vsintellicode.modify.editor.suggestSelection": "automaticallyOverrodeDefaultValue",
  "java.project.importHint": false,
  "files.exclude": {
    "**/.classpath": true,
    "**/.factorypath": true,
    "**/.project": true,
    "**/.settings": true
  },
  "latex-workshop.view.pdf.viewer": "browser",
  "workbench.editorAssociations": {
    "*.ipynb": "jupyter.notebook.ipynb"
  },
  "jupyter.askForKernelRestart": false,
  "liveshare.anonymousGuestApproval": "accept",
  "[vue]": {
    "editor.defaultFormatter": "esbenp.prettier-vscode",
    "editor.formatOnPaste": true,
    "editor.formatOnSave": true,
    "editor.detectIndentation": false,
    "editor.tabSize": 2,
    "editor.insertSpaces": true
  },
  "debug.allowBreakpointsEverywhere": true,
  "go.toolsManagement.autoUpdate": true,
  "asciidoc.use_asciidoctorpdf": true,
  "[latex]": {
    "editor.formatOnPaste": true,
    "editor.formatOnSave": true,
    "editor.detectIndentation": false,
    "editor.tabSize": 2,
    "editor.insertSpaces": true
  },
  "[bibtex]": {
    "editor.formatOnPaste": true,
    "editor.formatOnSave": true,
    "editor.detectIndentation": false,
    "editor.tabSize": 2,
    "editor.insertSpaces": true
  },
  "ltex.language": "de-DE",
  "hediet.vscode-drawio.local-storage": "eyIuZHJhd2lvLWNvbmZpZyI6IntcImxhbmd1YWdlXCI6XCJcIixcImN1c3RvbUZvbnRzXCI6W10sXCJsaWJyYXJpZXNcIjpcImdlbmVyYWxcIixcImN1c3RvbUxpYnJhcmllc1wiOltcIkwuc2NyYXRjaHBhZFwiXSxcInBsdWdpbnNcIjpbXSxcInJlY2VudENvbG9yc1wiOltdLFwiZm9ybWF0V2lkdGhcIjpcIjI0MFwiLFwiY3JlYXRlVGFyZ2V0XCI6ZmFsc2UsXCJwYWdlRm9ybWF0XCI6e1wieFwiOjAsXCJ5XCI6MCxcIndpZHRoXCI6ODUwLFwiaGVpZ2h0XCI6MTEwMH0sXCJzZWFyY2hcIjp0cnVlLFwic2hvd1N0YXJ0U2NyZWVuXCI6dHJ1ZSxcImdyaWRDb2xvclwiOlwiI2QwZDBkMFwiLFwiZGFya0dyaWRDb2xvclwiOlwiIzZlNmU2ZVwiLFwiYXV0b3NhdmVcIjp0cnVlLFwicmVzaXplSW1hZ2VzXCI6bnVsbCxcIm9wZW5Db3VudGVyXCI6MCxcInZlcnNpb25cIjoxOCxcInVuaXRcIjoxLFwiaXNSdWxlck9uXCI6ZmFsc2UsXCJ1aVwiOlwiXCJ9In0=",
  "hediet.vscode-drawio.theme": "automatic"
}
